[
    {
        "fields": {
            "app_label": "auth",
            "model": "permission",
            "name": "permission"
        },
        "model": "contenttypes.contenttype",
        "pk": 1
    },
    {
        "fields": {
            "app_label": "auth",
            "model": "group",
            "name": "group"
        },
        "model": "contenttypes.contenttype",
        "pk": 2
    },
    {
        "fields": {
            "app_label": "auth",
            "model": "user",
            "name": "user"
        },
        "model": "contenttypes.contenttype",
        "pk": 3
    },
    {
        "fields": {
            "app_label": "contenttypes",
            "model": "contenttype",
            "name": "content type"
        },
        "model": "contenttypes.contenttype",
        "pk": 4
    },
    {
        "fields": {
            "app_label": "sessions",
            "model": "session",
            "name": "session"
        },
        "model": "contenttypes.contenttype",
        "pk": 5
    },
    {
        "fields": {
            "app_label": "sites",
            "model": "site",
            "name": "site"
        },
        "model": "contenttypes.contenttype",
        "pk": 6
    },
    {
        "fields": {
            "app_label": "admin",
            "model": "logentry",
            "name": "log entry"
        },
        "model": "contenttypes.contenttype",
        "pk": 7
    },
    {
        "fields": {
            "app_label": "search",
            "model": "author",
            "name": "author"
        },
        "model": "contenttypes.contenttype",
        "pk": 8
    },
    {
        "fields": {
            "app_label": "search",
            "model": "distributor",
            "name": "distributor"
        },
        "model": "contenttypes.contenttype",
        "pk": 9
    },
    {
        "fields": {
            "app_label": "search",
            "model": "publisher",
            "name": "publisher"
        },
        "model": "contenttypes.contenttype",
        "pk": 10
    },
    {
        "fields": {
            "app_label": "search",
            "model": "collection",
            "name": "collection"
        },
        "model": "contenttypes.contenttype",
        "pk": 11
    },
    {
        "fields": {
            "app_label": "search",
            "model": "cardtype",
            "name": "card type"
        },
        "model": "contenttypes.contenttype",
        "pk": 12
    },
    {
        "fields": {
            "app_label": "search",
            "model": "card",
            "name": "card"
        },
        "model": "contenttypes.contenttype",
        "pk": 13
    },
    {
        "fields": {
            "app_label": "search",
            "model": "placecopies",
            "name": "place copies"
        },
        "model": "contenttypes.contenttype",
        "pk": 14
    },
    {
        "fields": {
            "app_label": "search",
            "model": "place",
            "name": "place"
        },
        "model": "contenttypes.contenttype",
        "pk": 15
    },
    {
        "fields": {
            "app_label": "search",
            "model": "preferences",
            "name": "preferences"
        },
        "model": "contenttypes.contenttype",
        "pk": 16
    },
    {
        "fields": {
            "app_label": "search",
            "model": "basketcopies",
            "name": "basket copies"
        },
        "model": "contenttypes.contenttype",
        "pk": 17
    },
    {
        "fields": {
            "app_label": "search",
            "model": "basket",
            "name": "basket"
        },
        "model": "contenttypes.contenttype",
        "pk": 18
    },
    {
        "fields": {
            "app_label": "search",
            "model": "baskettype",
            "name": "basket type"
        },
        "model": "contenttypes.contenttype",
        "pk": 19
    },
    {
        "fields": {
            "app_label": "search",
            "model": "depositcopies",
            "name": "deposit copies"
        },
        "model": "contenttypes.contenttype",
        "pk": 20
    },
    {
        "fields": {
            "app_label": "search",
            "model": "deposit",
            "name": "deposit"
        },
        "model": "contenttypes.contenttype",
        "pk": 21
    },
    {
        "fields": {
            "app_label": "search",
            "model": "address",
            "name": "address"
        },
        "model": "contenttypes.contenttype",
        "pk": 22
    },
    {
        "fields": {
            "domain": "example.com",
            "name": "example.com"
        },
        "model": "sites.site",
        "pk": 1
    },
    {
        "fields": {
            "created": "2014-08-20T14:34:08.268Z",
            "modified": "2014-08-20T14:34:08.268Z",
            "name": "Ernest Hemingway"
        },
        "model": "search.author",
        "pk": 1
    },
    {
        "fields": {
            "created": "2014-08-20T14:34:14.621Z",
            "modified": "2014-08-20T14:34:14.621Z",
            "name": "Mc Lain, Paula"
        },
        "model": "search.author",
        "pk": 2
    },
    {
        "fields": {
            "created": "2014-08-20T14:34:37.513Z",
            "modified": "2014-08-20T14:34:37.513Z",
            "name": "Howard Zinn"
        },
        "model": "search.author",
        "pk": 3
    },
    {
        "fields": {
            "created": "2014-08-20T14:34:52.138Z",
            "modified": "2014-08-20T14:34:52.138Z",
            "name": "Goldman Emma"
        },
        "model": "search.author",
        "pk": 4
    },
    {
        "fields": {
            "created": "2014-08-20T14:35:13.908Z",
            "modified": "2014-08-20T14:35:13.908Z",
            "name": "Victor Hugo"
        },
        "model": "search.author",
        "pk": 5
    },
    {
        "fields": {
            "created": "2014-07-27T18:34:23.369Z",
            "modified": "2014-07-27T18:34:23.369Z",
            "name": "default distributor"
        },
        "model": "search.distributor",
        "pk": 1
    },
    {
        "fields": {
            "address": null,
            "comment": null,
            "isbn": null,
            "name": "gallimard"
        },
        "model": "search.publisher",
        "pk": 1
    },
    {
        "fields": {
            "address": null,
            "comment": null,
            "isbn": null,
            "name": "lgf"
        },
        "model": "search.publisher",
        "pk": 2
    },
    {
        "fields": {
            "address": null,
            "comment": null,
            "isbn": null,
            "name": "agone"
        },
        "model": "search.publisher",
        "pk": 3
    },
    {
        "fields": {
            "address": null,
            "comment": null,
            "isbn": null,
            "name": "n.a.l"
        },
        "model": "search.publisher",
        "pk": 4
    },
    {
        "fields": {
            "address": null,
            "comment": null,
            "isbn": null,
            "name": "pocket"
        },
        "model": "search.publisher",
        "pk": 5
    },
    {
        "fields": {
            "name": "book"
        },
        "model": "search.cardtype",
        "pk": 1
    },
    {
        "fields": {
            "name": "cd"
        },
        "model": "search.cardtype",
        "pk": 2
    },
    {
        "fields": {
            "name": "dvd"
        },
        "model": "search.cardtype",
        "pk": 3
    },
    {
        "fields": {
            "name": "tshirt"
        },
        "model": "search.cardtype",
        "pk": 4
    },
    {
        "fields": {
            "name": "vinyl"
        },
        "model": "search.cardtype",
        "pk": 5
    },
    {
        "fields": {
            "name": "other"
        },
        "model": "search.cardtype",
        "pk": 6
    },
    {
        "fields": {
            "name": "unknown"
        },
        "model": "search.cardtype",
        "pk": 7
    },
    {
        "fields": {
            "authors": [
                1
            ],
            "card_type": 1,
            "collection": null,
            "comment": "",
            "created": "2014-08-20T14:34:08.412Z",
            "data_source": "Chapitre.com",
            "details_url": "http://www.chapitre.com/CHAPITRE/fr/BOOK/hemingway-ernes/le-vieil-homme-et-la-mer,32437417.aspx",
            "distributor": 1,
            "ean": "",
            "img": "http://www.images-chapitre.com/ima1/newnormal/417/32437417_6662777.jpg",
            "isbn": null,
            "modified": "2014-08-20T14:34:09.138Z",
            "origkey": null,
            "price": "5,60",
            "price_sold": null,
            "publishers": [
                1
            ],
            "quantity": 1,
            "sold": null,
            "sortkey": "",
            "title": "Le vieil homme et la mer",
            "year_published": null
        },
        "model": "search.card",
        "pk": 1
    },
    {
        "fields": {
            "authors": [
                2
            ],
            "card_type": 1,
            "collection": null,
            "comment": "",
            "created": "2014-08-20T14:34:14.767Z",
            "data_source": "Chapitre.com",
            "details_url": "http://www.chapitre.com/CHAPITRE/fr/BOOK/mc-lain-paula/madame-hemingway,51580617.aspx",
            "distributor": 1,
            "ean": "",
            "img": "http://www.images-chapitre.com/ima2/newnormal/617/51580617_10675689.jpg",
            "isbn": null,
            "modified": "2014-08-20T14:34:15.521Z",
            "origkey": null,
            "price": "7,60",
            "price_sold": null,
            "publishers": [
                2
            ],
            "quantity": 1,
            "sold": null,
            "sortkey": "",
            "title": "Madame Hemingway",
            "year_published": null
        },
        "model": "search.card",
        "pk": 2
    },
    {
        "fields": {
            "authors": [
                3
            ],
            "card_type": 1,
            "collection": null,
            "comment": "",
            "created": "2014-08-20T14:34:37.657Z",
            "data_source": "Chapitre.com",
            "details_url": "http://www.chapitre.com/CHAPITRE/fr/BOOK/zinn-howard/en-suivant-emma-piece-historique-sur-emma-goldman-anarchiste-et-feministe-americ,1321677.aspx",
            "distributor": 1,
            "ean": "",
            "img": "http://www.images-chapitre.com/ima2/newnormal/677/1321677_3232695.jpg",
            "isbn": null,
            "modified": "2014-08-20T14:34:38.418Z",
            "origkey": null,
            "price": "15,30",
            "price_sold": null,
            "publishers": [
                3
            ],
            "quantity": 1,
            "sold": null,
            "sortkey": "",
            "title": "En suivant Emma ; pi\u00e8ce historique sur Emma Goldman, anarchiste et f\u00e9ministe am\u00e9ricaine",
            "year_published": null
        },
        "model": "search.card",
        "pk": 3
    },
    {
        "fields": {
            "authors": [
                4
            ],
            "card_type": 1,
            "collection": null,
            "comment": "",
            "created": "2014-08-20T14:34:52.315Z",
            "data_source": "Chapitre.com",
            "details_url": "http://www.chapitre.com/CHAPITRE/fr/BOOK/goldman-emma/living-my-life,23108285.aspx",
            "distributor": 1,
            "ean": "",
            "img": "http://www.images-chapitre.com/indispo/newnormal.png",
            "isbn": null,
            "modified": "2014-08-20T14:34:53.051Z",
            "origkey": null,
            "price": "produit indisponible",
            "price_sold": null,
            "publishers": [
                4
            ],
            "quantity": 1,
            "sold": null,
            "sortkey": "",
            "title": "Living My Life",
            "year_published": null
        },
        "model": "search.card",
        "pk": 4
    },
    {
        "fields": {
            "authors": [
                5
            ],
            "card_type": 1,
            "collection": null,
            "comment": "",
            "created": "2014-08-20T14:35:14.042Z",
            "data_source": "Chapitre.com",
            "details_url": "http://www.chapitre.com/CHAPITRE/fr/BOOK/hugo-victor/le-dernier-jour-d-un-condamne,1073207.aspx",
            "distributor": 1,
            "ean": "",
            "img": "http://www.images-chapitre.com/ima0/newnormal/207/1073207_11609259.jpg",
            "isbn": null,
            "modified": "2014-08-20T14:35:14.737Z",
            "origkey": null,
            "price": "1,55",
            "price_sold": null,
            "publishers": [
                5
            ],
            "quantity": 1,
            "sold": null,
            "sortkey": "",
            "title": "Le dernier jour d'un condamne",
            "year_published": null
        },
        "model": "search.card",
        "pk": 5
    },
    {
        "fields": {
            "authors": [
                5
            ],
            "card_type": 1,
            "collection": null,
            "comment": "",
            "created": "2014-08-20T14:35:26.704Z",
            "data_source": "Chapitre.com",
            "details_url": "http://www.chapitre.com/CHAPITRE/fr/BOOK/hugo-victor/les-contemplations,107808.aspx",
            "distributor": 1,
            "ean": "",
            "img": "http://www.images-chapitre.com/ima3/newnormal/808/107808_6567009.jpg",
            "isbn": null,
            "modified": "2014-08-20T14:35:27.368Z",
            "origkey": null,
            "price": "5,50",
            "price_sold": null,
            "publishers": [
                2
            ],
            "quantity": 1,
            "sold": null,
            "sortkey": "",
            "title": "Les contemplations",
            "year_published": null
        },
        "model": "search.card",
        "pk": 6
    },
    {
        "fields": {
            "card": 1,
            "nb": 1,
            "place": 1
        },
        "model": "search.placecopies",
        "pk": 1
    },
    {
        "fields": {
            "card": 2,
            "nb": 1,
            "place": 1
        },
        "model": "search.placecopies",
        "pk": 2
    },
    {
        "fields": {
            "card": 3,
            "nb": 1,
            "place": 1
        },
        "model": "search.placecopies",
        "pk": 3
    },
    {
        "fields": {
            "card": 4,
            "nb": 1,
            "place": 1
        },
        "model": "search.placecopies",
        "pk": 4
    },
    {
        "fields": {
            "card": 5,
            "nb": 1,
            "place": 1
        },
        "model": "search.placecopies",
        "pk": 5
    },
    {
        "fields": {
            "card": 6,
            "nb": 1,
            "place": 1
        },
        "model": "search.placecopies",
        "pk": 6
    },
    {
        "fields": {
            "can_sell": true,
            "comment": null,
            "date_creation": "2014-05-14",
            "date_deletion": null,
            "is_stand": false,
            "name": "default place"
        },
        "model": "search.place",
        "pk": 1
    },
    {
        "fields": {
            "default_place": 1
        },
        "model": "search.preferences",
        "pk": 1
    },
    {
        "fields": {
            "basket_type": null,
            "comment": "",
            "descrition": "premier panier",
            "name": "first basket"
        },
        "model": "search.basket",
        "pk": 1
    }
]
